<?xml version="1.0" encoding="iso-8859-1"?>
<!-- Generator: Adobe Illustrator 19.0.0, SVG Export Plug-In . SVG Version: 6.00 Build 0)  -->
<svg version="1.1" id="Layer_1" xmlns="http://www.w3.org/2000/svg" xmlns:xlink="http://www.w3.org/1999/xlink" x="0px" y="0px"
	 viewBox="0 0 512 512" style="enable-background:new 0 0 512 512;" xml:space="preserve">
<path style="fill:#4EC9E6;" d="M226.088,497c0-8.291,6.709-15,15-15c-22.952,0-47.426-28.645-61.967-75l-11.902-15H80.885
	l-12.491,15c1.295,2.479,4.72,9.082,5.336,9.771C108.651,475.584,172.519,512,241.088,512C232.797,512,226.088,505.291,226.088,497z
	"/>
<path style="fill:#8A9CBF;" d="M241.088,482c8.291,0,15,6.709,15,15s-6.709,15-15,15c69.434,0,134.077-37.368,168.618-97.368
	c1.45-2.455,2.498-5.114,3.832-7.632l-13.616-15h-86.573l-10.295,15C288.514,453.355,264.04,482,241.088,482z"/>
<path style="fill:#465066;" d="M256.086,15v62c0,8.401-6.899,15-15,15c-8.399,0-15-6.599-15-15V15c0-8.401,6.601-15,15-15
	C249.187,0,256.086,6.599,256.086,15z"/>
<path style="fill:#677189;" d="M241.086,62c-24.901,0-45,20.099-45,45v32.699c0,4.501,2.1,8.701,5.4,11.4
	c3.3,3.001,7.8,4.2,12.301,3.3c8.699-1.8,17.999-2.399,27.299-2.399s18.6,0.599,27.299,2.399c0.901,0.3,1.802,0.3,2.701,0.3
	c3.6,0,6.899-1.199,9.6-3.6c3.3-2.699,5.4-6.899,5.4-11.4V107C286.086,82.099,265.987,62,241.086,62z"/>
<path style="fill:#35425C;" d="M241.086,92V0c8.101,0,15,6.599,15,15v62C256.086,85.401,249.187,92,241.086,92z"/>
<path style="fill:#5F697F;" d="M268.385,154.399c-8.699-1.8-17.999-2.399-27.299-2.399V62c24.901,0,45,20.099,45,45v32.699
	c0,4.501-2.1,8.701-5.4,11.4c-2.701,2.401-6,3.6-9.6,3.6C270.187,154.699,269.286,154.699,268.385,154.399z"/>
<path style="fill:#9DACCF;" d="M241.088,152c-8.291,0-15-6.709-15-15s6.709-15,15-15c-11.309,0-22.339,0.996-32.476,2.9
	c-56.777,9.521-105.776,43.081-134.854,92.256c-0.615,0.718-15.244,24.844-24.304,64.212L84.17,242h78.358l16.594-15
	C193.662,180.645,218.136,152,241.088,152z"/>
<path style="fill:#8A9CBF;" d="M166.088,317l-14.163-15H57.323l-11.235,15c0,31.586,7.908,62.417,22.306,90h110.728
	C171.186,381.702,166.088,351.33,166.088,317z"/>
<path style="fill:#57DEFF;" d="M179.121,227H68.394c-14.398,27.583-22.306,58.414-22.306,90h120
	C166.088,282.67,171.186,252.298,179.121,227z"/>
<path style="fill:#4EC9E6;" d="M316.088,317c0,34.33-5.098,64.702-13.033,90h110.484c14.548-27.431,22.549-58.255,22.549-90
	l-18.03-15h-85.784L316.088,317z"/>
<path style="fill:#E673AD;" d="M256.088,137c0,8.291-6.709,15-15,15c22.952,0,47.426,28.645,61.967,75l14.048,15h80.47l15.979-15
	c-1.306-2.457-2.327-5.061-3.743-7.456c-28.901-50.464-78.545-84.961-135.952-94.585c-10.43-1.963-21.46-2.959-32.769-2.959
	C249.379,122,256.088,128.709,256.088,137z"/>
<path style="fill:#9DACCF;" d="M316.088,317h120c0-31.8-8.022-62.67-22.537-90H303.054C310.99,252.298,316.088,282.67,316.088,317z"
	/>
<path d="M226.088,137c0,8.291,6.709,15,15,15s15-6.709,15-15s-6.709-15-15-15S226.088,128.709,226.088,137z"/>
<path d="M256.088,497c0-8.291-6.709-15-15-15s-15,6.709-15,15s6.709,15,15,15S256.088,505.291,256.088,497z"/>
<path style="fill:#52CED1;" d="M481,452h-15v-15c0-8.291-6.709-15-15-15s-15,6.709-15,15v15h-15c-8.291,0-15,6.709-15,15
	s6.709,15,15,15h15v15c0,8.291,6.709,15,15,15s15-6.709,15-15v-15h15c8.291,0,15-6.709,15-15S489.291,452,481,452z"/>
<path style="fill:#FF80C0;" d="M91,62H76V47c0-8.291-6.709-15-15-15s-15,6.709-15,15v15H31c-8.291,0-15,6.709-15,15s6.709,15,15,15
	h15v15c0,8.291,6.709,15,15,15s15-6.709,15-15V92h15c8.291,0,15-6.709,15-15S99.291,62,91,62z"/>
<path style="fill:#C4D3F2;" d="M334.386,407c-17.1,62.699-51.899,105-93.3,105s-76.199-42.301-93.3-105l40.499-15h105.901
	L334.386,407z"/>
<path style="fill:#FF80C0;" d="M334.386,407c-17.1,62.699-51.899,105-93.3,105V392h53.101L334.386,407z"/>
<path style="fill:#E673AD;" d="M346.086,317c0,32.699-4.2,63.3-11.7,90h-186.6c-7.5-26.7-11.7-57.301-11.7-90l38.101-15h118.2
	L346.086,317z"/>
<path style="fill:#C4D3F2;" d="M346.086,317c0,32.699-4.2,63.3-11.7,90h-93.3V302h51.301L346.086,317z"/>
<path style="fill:#FF80C0;" d="M334.386,227l-48.9,15h-95.7l-41.999-15c17.1-62.701,51.899-105,93.3-105
	S317.285,164.299,334.386,227z"/>
<g>
	<path style="fill:#D1E0FF;" d="M285.485,242h-44.399V122c41.4,0,76.199,42.299,93.3,105L285.485,242z"/>
	<path style="fill:#D1E0FF;" d="M346.086,317h-210c0-32.701,4.2-63.3,11.7-90h186.599C341.886,253.7,346.086,284.299,346.086,317z"
		/>
</g>
<path style="fill:#57DEFF;" d="M346.086,317h-105v-90h93.3C341.886,253.7,346.086,284.299,346.086,317z"/>
<g>
</g>
<g>
</g>
<g>
</g>
<g>
</g>
<g>
</g>
<g>
</g>
<g>
</g>
<g>
</g>
<g>
</g>
<g>
</g>
<g>
</g>
<g>
</g>
<g>
</g>
<g>
</g>
<g>
</g>
</svg>
